C:\Users\piyush.tiwari\Documents\NetBeansProjects\RestApiAssignment\src\main\java\com\facultyDao\FacultyDao.java
C:\Users\piyush.tiwari\Documents\NetBeansProjects\RestApiAssignment\src\main\java\com\restapiassignment\Faculty.java
C:\Users\piyush.tiwari\Documents\NetBeansProjects\RestApiAssignment\src\main\java\com\resource\FacultyResource.java
C:\Users\piyush.tiwari\Documents\NetBeansProjects\RestApiAssignment\src\main\java\com\utility\HibernateUtil.java
