E:\Assignment\assignment\RestApiAssignment1\src\main\java\com\utility\HibernateUtil.java
E:\Assignment\assignment\RestApiAssignment1\src\main\java\com\facultyDaoTest\FacultyDaoTest.java
E:\Assignment\assignment\RestApiAssignment1\src\main\java\com\restapiassignment\Faculty.java
E:\Assignment\assignment\RestApiAssignment1\src\main\java\com\resource\FacultyResource.java
E:\Assignment\assignment\RestApiAssignment1\src\main\java\com\facultyDao\FacultyDao.java
